LOG_FILE.log
UVM_INFO /home/runner/rom_scoreboard.sv(78) @ 5: uvm_test_top.env_h.scoreboard_h [write_drv STIM] addr= 0  rd=0 rst=1
UVM_INFO /home/runner/rom_scoreboard.sv(108) @ 10: uvm_test_top.env_h.scoreboard_h [write_mon OUT ] addr= 0  rd=0 rst=1  out=      00 
UVM_INFO /home/runner/rom_scoreboard.sv(122) @ 10: uvm_test_top.env_h.scoreboard_h [PASS ] addr= 0  rd=0 rst=1  out=      00 
UVM_INFO /home/runner/rom_scoreboard.sv(78) @ 15: uvm_test_top.env_h.scoreboard_h [write_drv STIM] addr= 0  rd=0 rst=1
UVM_INFO /home/runner/rom_scoreboard.sv(108) @ 20: uvm_test_top.env_h.scoreboard_h [write_mon OUT ] addr= 0  rd=0 rst=1  out=      00 
UVM_INFO /home/runner/rom_scoreboard.sv(122) @ 20: uvm_test_top.env_h.scoreboard_h [PASS ] addr= 0  rd=0 rst=1  out=      00 
UVM_INFO /home/runner/rom_scoreboard.sv(78) @ 25: uvm_test_top.env_h.scoreboard_h [write_drv STIM] addr=11  rd=1 rst=0
UVM_INFO /home/runner/rom_scoreboard.sv(108) @ 30: uvm_test_top.env_h.scoreboard_h [write_mon OUT ] addr=11  rd=1 rst=0  out=      00 
UVM_INFO /home/runner/rom_scoreboard.sv(122) @ 30: uvm_test_top.env_h.scoreboard_h [PASS ] addr=11  rd=1 rst=0  out=      00 
UVM_INFO /home/runner/rom_scoreboard.sv(78) @ 35: uvm_test_top.env_h.scoreboard_h [write_drv STIM] addr=24  rd=1 rst=0
UVM_INFO /home/runner/rom_scoreboard.sv(108) @ 40: uvm_test_top.env_h.scoreboard_h [write_mon OUT ] addr=24  rd=1 rst=0  out=      1d 
UVM_INFO /home/runner/rom_scoreboard.sv(122) @ 40: uvm_test_top.env_h.scoreboard_h [PASS ] addr=24  rd=1 rst=0  out=      1d 
UVM_INFO /home/runner/rom_scoreboard.sv(78) @ 45: uvm_test_top.env_h.scoreboard_h [write_drv STIM] addr=18  rd=1 rst=0
UVM_INFO /home/runner/rom_scoreboard.sv(108) @ 50: uvm_test_top.env_h.scoreboard_h [write_mon OUT ] addr=18  rd=1 rst=0  out=      39 
UVM_INFO /home/runner/rom_scoreboard.sv(122) @ 50: uvm_test_top.env_h.scoreboard_h [PASS ] addr=18  rd=1 rst=0  out=      39 
UVM_INFO /home/runner/rom_scoreboard.sv(78) @ 55: uvm_test_top.env_h.scoreboard_h [write_drv STIM] addr=25  rd=1 rst=0
UVM_INFO /home/runner/rom_scoreboard.sv(108) @ 60: uvm_test_top.env_h.scoreboard_h [write_mon OUT ] addr=25  rd=1 rst=0  out=      3a 
UVM_INFO /home/runner/rom_scoreboard.sv(122) @ 60: uvm_test_top.env_h.scoreboard_h [PASS ] addr=25  rd=1 rst=0  out=      3a 
UVM_INFO /home/runner/rom_scoreboard.sv(78) @ 65: uvm_test_top.env_h.scoreboard_h [write_drv STIM] addr=13  rd=1 rst=0
UVM_INFO /home/runner/rom_scoreboard.sv(108) @ 70: uvm_test_top.env_h.scoreboard_h [write_mon OUT ] addr=13  rd=1 rst=0  out=      da 
UVM_INFO /home/runner/rom_scoreboard.sv(122) @ 70: uvm_test_top.env_h.scoreboard_h [PASS ] addr=13  rd=1 rst=0  out=      da 
UVM_INFO /home/runner/rom_scoreboard.sv(78) @ 75: uvm_test_top.env_h.scoreboard_h [write_drv STIM] addr=14  rd=1 rst=0
UVM_INFO /home/runner/rom_scoreboard.sv(108) @ 80: uvm_test_top.env_h.scoreboard_h [write_mon OUT ] addr=14  rd=1 rst=0  out=      e4 
UVM_INFO /home/runner/rom_scoreboard.sv(122) @ 80: uvm_test_top.env_h.scoreboard_h [PASS ] addr=14  rd=1 rst=0  out=      e4 
UVM_INFO /home/runner/rom_scoreboard.sv(78) @ 85: uvm_test_top.env_h.scoreboard_h [write_drv STIM] addr=28  rd=1 rst=0
UVM_INFO /home/runner/rom_scoreboard.sv(108) @ 90: uvm_test_top.env_h.scoreboard_h [write_mon OUT ] addr=28  rd=1 rst=0  out=      a6 
UVM_INFO /home/runner/rom_scoreboard.sv(122) @ 90: uvm_test_top.env_h.scoreboard_h [PASS ] addr=28  rd=1 rst=0  out=      a6 
UVM_INFO /home/runner/rom_scoreboard.sv(78) @ 95: uvm_test_top.env_h.scoreboard_h [write_drv STIM] addr=23  rd=1 rst=0
UVM_INFO /home/runner/rom_scoreboard.sv(108) @ 100: uvm_test_top.env_h.scoreboard_h [write_mon OUT ] addr=23  rd=1 rst=0  out=      5b 
UVM_INFO /home/runner/rom_scoreboard.sv(122) @ 100: uvm_test_top.env_h.scoreboard_h [PASS ] addr=23  rd=1 rst=0  out=      5b 
UVM_INFO /home/runner/rom_scoreboard.sv(78) @ 105: uvm_test_top.env_h.scoreboard_h [write_drv STIM] addr=31  rd=1 rst=0
UVM_INFO /home/runner/rom_scoreboard.sv(108) @ 110: uvm_test_top.env_h.scoreboard_h [write_mon OUT ] addr=31  rd=1 rst=0  out=      67 
UVM_INFO /home/runner/rom_scoreboard.sv(122) @ 110: uvm_test_top.env_h.scoreboard_h [PASS ] addr=31  rd=1 rst=0  out=      67 
UVM_INFO /home/runner/rom_scoreboard.sv(78) @ 115: uvm_test_top.env_h.scoreboard_h [write_drv STIM] addr=20  rd=1 rst=0
UVM_INFO /home/runner/rom_scoreboard.sv(108) @ 120: uvm_test_top.env_h.scoreboard_h [write_mon OUT ] addr=20  rd=1 rst=0  out=      c3 
UVM_INFO /home/runner/rom_scoreboard.sv(122) @ 120: uvm_test_top.env_h.scoreboard_h [PASS ] addr=20  rd=1 rst=0  out=      c3 
UVM_INFO /home/runner/rom_scoreboard.sv(78) @ 125: uvm_test_top.env_h.scoreboard_h [write_drv STIM] addr=22  rd=1 rst=0
UVM_INFO /home/runner/rom_scoreboard.sv(108) @ 130: uvm_test_top.env_h.scoreboard_h [write_mon OUT ] addr=22  rd=1 rst=0  out=      a0 
UVM_INFO /home/runner/rom_scoreboard.sv(122) @ 130: uvm_test_top.env_h.scoreboard_h [PASS ] addr=22  rd=1 rst=0  out=      a0 
UVM_INFO /home/runner/rom_scoreboard.sv(78) @ 135: uvm_test_top.env_h.scoreboard_h [write_drv STIM] addr= 5  rd=1 rst=0
UVM_INFO /home/runner/rom_scoreboard.sv(108) @ 140: uvm_test_top.env_h.scoreboard_h [write_mon OUT ] addr= 5  rd=1 rst=0  out=      cd 
UVM_INFO /home/runner/rom_scoreboard.sv(122) @ 140: uvm_test_top.env_h.scoreboard_h [PASS ] addr= 5  rd=1 rst=0  out=      cd 
UVM_INFO /home/runner/rom_scoreboard.sv(78) @ 145: uvm_test_top.env_h.scoreboard_h [write_drv STIM] addr= 1  rd=1 rst=0
UVM_INFO /home/runner/rom_scoreboard.sv(108) @ 150: uvm_test_top.env_h.scoreboard_h [write_mon OUT ] addr= 1  rd=1 rst=0  out=      ab 
UVM_INFO /home/runner/rom_scoreboard.sv(122) @ 150: uvm_test_top.env_h.scoreboard_h [PASS ] addr= 1  rd=1 rst=0  out=      ab 
UVM_INFO /home/runner/rom_scoreboard.sv(78) @ 155: uvm_test_top.env_h.scoreboard_h [write_drv STIM] addr=10  rd=1 rst=0
UVM_INFO /home/runner/rom_scoreboard.sv(108) @ 160: uvm_test_top.env_h.scoreboard_h [write_mon OUT ] addr=10  rd=1 rst=0  out=      60 
UVM_INFO /home/runner/rom_scoreboard.sv(122) @ 160: uvm_test_top.env_h.scoreboard_h [PASS ] addr=10  rd=1 rst=0  out=      60 
UVM_INFO /home/runner/rom_scoreboard.sv(78) @ 165: uvm_test_top.env_h.scoreboard_h [write_drv STIM] addr= 0  rd=1 rst=0
UVM_INFO /home/runner/rom_scoreboard.sv(108) @ 170: uvm_test_top.env_h.scoreboard_h [write_mon OUT ] addr= 0  rd=1 rst=0  out=      8d 
UVM_INFO /home/runner/rom_scoreboard.sv(122) @ 170: uvm_test_top.env_h.scoreboard_h [PASS ] addr= 0  rd=1 rst=0  out=      8d 
UVM_INFO /home/runner/rom_scoreboard.sv(78) @ 175: uvm_test_top.env_h.scoreboard_h [write_drv STIM] addr= 3  rd=1 rst=0
UVM_INFO /home/runner/rom_scoreboard.sv(108) @ 180: uvm_test_top.env_h.scoreboard_h [write_mon OUT ] addr= 3  rd=1 rst=0  out=      45 
UVM_INFO /home/runner/rom_scoreboard.sv(122) @ 180: uvm_test_top.env_h.scoreboard_h [PASS ] addr= 3  rd=1 rst=0  out=      45 
UVM_INFO /home/runner/rom_scoreboard.sv(78) @ 185: uvm_test_top.env_h.scoreboard_h [write_drv STIM] addr=19  rd=1 rst=0
UVM_INFO /home/runner/rom_scoreboard.sv(108) @ 190: uvm_test_top.env_h.scoreboard_h [write_mon OUT ] addr=19  rd=1 rst=0  out=      79 
UVM_INFO /home/runner/rom_scoreboard.sv(122) @ 190: uvm_test_top.env_h.scoreboard_h [PASS ] addr=19  rd=1 rst=0  out=      79 
UVM_INFO /home/runner/rom_scoreboard.sv(78) @ 195: uvm_test_top.env_h.scoreboard_h [write_drv STIM] addr=16  rd=1 rst=0
UVM_INFO /home/runner/rom_scoreboard.sv(108) @ 200: uvm_test_top.env_h.scoreboard_h [write_mon OUT ] addr=16  rd=1 rst=0  out=      0a 
UVM_INFO /home/runner/rom_scoreboard.sv(122) @ 200: uvm_test_top.env_h.scoreboard_h [PASS ] addr=16  rd=1 rst=0  out=      0a 
UVM_INFO /home/runner/rom_scoreboard.sv(78) @ 205: uvm_test_top.env_h.scoreboard_h [write_drv STIM] addr=26  rd=1 rst=0
UVM_INFO /home/runner/rom_scoreboard.sv(108) @ 210: uvm_test_top.env_h.scoreboard_h [write_mon OUT ] addr=26  rd=1 rst=0  out=      87 
UVM_INFO /home/runner/rom_scoreboard.sv(122) @ 210: uvm_test_top.env_h.scoreboard_h [PASS ] addr=26  rd=1 rst=0  out=      87 
UVM_INFO /home/runner/rom_scoreboard.sv(78) @ 215: uvm_test_top.env_h.scoreboard_h [write_drv STIM] addr=17  rd=1 rst=0
UVM_INFO /home/runner/rom_scoreboard.sv(108) @ 220: uvm_test_top.env_h.scoreboard_h [write_mon OUT ] addr=17  rd=1 rst=0  out=      d4 
UVM_INFO /home/runner/rom_scoreboard.sv(122) @ 220: uvm_test_top.env_h.scoreboard_h [PASS ] addr=17  rd=1 rst=0  out=      d4 
UVM_INFO /home/runner/rom_scoreboard.sv(78) @ 225: uvm_test_top.env_h.scoreboard_h [write_drv STIM] addr=21  rd=1 rst=0
UVM_INFO /home/runner/rom_scoreboard.sv(108) @ 230: uvm_test_top.env_h.scoreboard_h [write_mon OUT ] addr=21  rd=1 rst=0  out=      21 
UVM_INFO /home/runner/rom_scoreboard.sv(122) @ 230: uvm_test_top.env_h.scoreboard_h [PASS ] addr=21  rd=1 rst=0  out=      21 
UVM_INFO /home/runner/rom_scoreboard.sv(78) @ 235: uvm_test_top.env_h.scoreboard_h [write_drv STIM] addr= 6  rd=1 rst=0
UVM_INFO /home/runner/rom_scoreboard.sv(108) @ 240: uvm_test_top.env_h.scoreboard_h [write_mon OUT ] addr= 6  rd=1 rst=0  out=      bc 
UVM_INFO /home/runner/rom_scoreboard.sv(122) @ 240: uvm_test_top.env_h.scoreboard_h [PASS ] addr= 6  rd=1 rst=0  out=      bc 
UVM_INFO /home/runner/rom_scoreboard.sv(78) @ 245: uvm_test_top.env_h.scoreboard_h [write_drv STIM] addr= 4  rd=1 rst=0
UVM_INFO /home/runner/rom_scoreboard.sv(108) @ 250: uvm_test_top.env_h.scoreboard_h [write_mon OUT ] addr= 4  rd=1 rst=0  out=      cf 
UVM_INFO /home/runner/rom_scoreboard.sv(122) @ 250: uvm_test_top.env_h.scoreboard_h [PASS ] addr= 4  rd=1 rst=0  out=      cf 
UVM_INFO /home/runner/rom_scoreboard.sv(78) @ 255: uvm_test_top.env_h.scoreboard_h [write_drv STIM] addr=15  rd=1 rst=0
UVM_INFO /home/runner/rom_scoreboard.sv(108) @ 260: uvm_test_top.env_h.scoreboard_h [write_mon OUT ] addr=15  rd=1 rst=0  out=      12 
UVM_INFO /home/runner/rom_scoreboard.sv(122) @ 260: uvm_test_top.env_h.scoreboard_h [PASS ] addr=15  rd=1 rst=0  out=      12 
UVM_INFO /home/runner/rom_scoreboard.sv(78) @ 265: uvm_test_top.env_h.scoreboard_h [write_drv STIM] addr= 7  rd=1 rst=0
UVM_INFO /home/runner/rom_scoreboard.sv(108) @ 270: uvm_test_top.env_h.scoreboard_h [write_mon OUT ] addr= 7  rd=1 rst=0  out=      9d 
UVM_INFO /home/runner/rom_scoreboard.sv(122) @ 270: uvm_test_top.env_h.scoreboard_h [PASS ] addr= 7  rd=1 rst=0  out=      9d 
UVM_INFO /home/runner/rom_scoreboard.sv(78) @ 275: uvm_test_top.env_h.scoreboard_h [write_drv STIM] addr=12  rd=1 rst=0
UVM_INFO /home/runner/rom_scoreboard.sv(108) @ 280: uvm_test_top.env_h.scoreboard_h [write_mon OUT ] addr=12  rd=1 rst=0  out=      9a 
UVM_INFO /home/runner/rom_scoreboard.sv(122) @ 280: uvm_test_top.env_h.scoreboard_h [PASS ] addr=12  rd=1 rst=0  out=      9a 
UVM_INFO /home/runner/rom_scoreboard.sv(78) @ 285: uvm_test_top.env_h.scoreboard_h [write_drv STIM] addr=30  rd=1 rst=0
UVM_INFO /home/runner/rom_scoreboard.sv(108) @ 290: uvm_test_top.env_h.scoreboard_h [write_mon OUT ] addr=30  rd=1 rst=0  out=      34 
UVM_INFO /home/runner/rom_scoreboard.sv(122) @ 290: uvm_test_top.env_h.scoreboard_h [PASS ] addr=30  rd=1 rst=0  out=      34 
UVM_INFO /home/runner/rom_scoreboard.sv(78) @ 295: uvm_test_top.env_h.scoreboard_h [write_drv STIM] addr=29  rd=1 rst=0
UVM_INFO /home/runner/rom_scoreboard.sv(108) @ 300: uvm_test_top.env_h.scoreboard_h [write_mon OUT ] addr=29  rd=1 rst=0  out=      7c 
UVM_INFO /home/runner/rom_scoreboard.sv(122) @ 300: uvm_test_top.env_h.scoreboard_h [PASS ] addr=29  rd=1 rst=0  out=      7c 
UVM_INFO /home/runner/rom_scoreboard.sv(78) @ 305: uvm_test_top.env_h.scoreboard_h [write_drv STIM] addr= 9  rd=1 rst=0
UVM_INFO /home/runner/rom_scoreboard.sv(108) @ 310: uvm_test_top.env_h.scoreboard_h [write_mon OUT ] addr= 9  rd=1 rst=0  out=      6a 
UVM_INFO /home/runner/rom_scoreboard.sv(122) @ 310: uvm_test_top.env_h.scoreboard_h [PASS ] addr= 9  rd=1 rst=0  out=      6a 
UVM_INFO /home/runner/rom_scoreboard.sv(78) @ 315: uvm_test_top.env_h.scoreboard_h [write_drv STIM] addr= 2  rd=1 rst=0
UVM_INFO /home/runner/rom_scoreboard.sv(108) @ 320: uvm_test_top.env_h.scoreboard_h [write_mon OUT ] addr= 2  rd=1 rst=0  out=      c4 
UVM_INFO /home/runner/rom_scoreboard.sv(122) @ 320: uvm_test_top.env_h.scoreboard_h [PASS ] addr= 2  rd=1 rst=0  out=      c4 
UVM_INFO /home/runner/rom_scoreboard.sv(78) @ 325: uvm_test_top.env_h.scoreboard_h [write_drv STIM] addr= 8  rd=1 rst=0
UVM_INFO /home/runner/rom_scoreboard.sv(108) @ 330: uvm_test_top.env_h.scoreboard_h [write_mon OUT ] addr= 8  rd=1 rst=0  out=      23 
UVM_INFO /home/runner/rom_scoreboard.sv(122) @ 330: uvm_test_top.env_h.scoreboard_h [PASS ] addr= 8  rd=1 rst=0  out=      23 
UVM_INFO /home/runner/rom_scoreboard.sv(78) @ 335: uvm_test_top.env_h.scoreboard_h [write_drv STIM] addr=27  rd=1 rst=0
UVM_INFO /home/runner/rom_scoreboard.sv(108) @ 340: uvm_test_top.env_h.scoreboard_h [write_mon OUT ] addr=27  rd=1 rst=0  out=      b2 
UVM_INFO /home/runner/rom_scoreboard.sv(122) @ 340: uvm_test_top.env_h.scoreboard_h [PASS ] addr=27  rd=1 rst=0  out=      b2 
UVM_INFO /home/runner/rom_scoreboard.sv(78) @ 345: uvm_test_top.env_h.scoreboard_h [write_drv STIM] addr=27  rd=1 rst=0
UVM_INFO /home/runner/rom_scoreboard.sv(108) @ 350: uvm_test_top.env_h.scoreboard_h [write_mon OUT ] addr=27  rd=1 rst=0  out=      9b 
UVM_INFO /home/runner/rom_scoreboard.sv(122) @ 350: uvm_test_top.env_h.scoreboard_h [PASS ] addr=27  rd=1 rst=0  out=      9b 
UVM_INFO /home/runner/rom_scoreboard.sv(78) @ 355: uvm_test_top.env_h.scoreboard_h [write_drv STIM] addr= 8  rd=1 rst=0
UVM_INFO /home/runner/rom_scoreboard.sv(108) @ 360: uvm_test_top.env_h.scoreboard_h [write_mon OUT ] addr= 8  rd=1 rst=0  out=      9b 
UVM_INFO /home/runner/rom_scoreboard.sv(122) @ 360: uvm_test_top.env_h.scoreboard_h [PASS ] addr= 8  rd=1 rst=0  out=      9b 
UVM_INFO /home/runner/rom_scoreboard.sv(78) @ 365: uvm_test_top.env_h.scoreboard_h [write_drv STIM] addr= 2  rd=1 rst=0
UVM_INFO /home/runner/rom_scoreboard.sv(108) @ 370: uvm_test_top.env_h.scoreboard_h [write_mon OUT ] addr= 2  rd=1 rst=0  out=      b2 
UVM_INFO /home/runner/rom_scoreboard.sv(122) @ 370: uvm_test_top.env_h.scoreboard_h [PASS ] addr= 2  rd=1 rst=0  out=      b2 
UVM_INFO /home/runner/rom_scoreboard.sv(78) @ 375: uvm_test_top.env_h.scoreboard_h [write_drv STIM] addr= 9  rd=1 rst=0
UVM_INFO /home/runner/rom_scoreboard.sv(108) @ 380: uvm_test_top.env_h.scoreboard_h [write_mon OUT ] addr= 9  rd=1 rst=0  out=      23 
UVM_INFO /home/runner/rom_scoreboard.sv(122) @ 380: uvm_test_top.env_h.scoreboard_h [PASS ] addr= 9  rd=1 rst=0  out=      23 
UVM_INFO /home/runner/rom_scoreboard.sv(78) @ 385: uvm_test_top.env_h.scoreboard_h [write_drv STIM] addr=29  rd=1 rst=0
UVM_INFO /home/runner/rom_scoreboard.sv(108) @ 390: uvm_test_top.env_h.scoreboard_h [write_mon OUT ] addr=29  rd=1 rst=0  out=      c4 
UVM_INFO /home/runner/rom_scoreboard.sv(122) @ 390: uvm_test_top.env_h.scoreboard_h [PASS ] addr=29  rd=1 rst=0  out=      c4 
UVM_INFO /home/runner/rom_scoreboard.sv(78) @ 395: uvm_test_top.env_h.scoreboard_h [write_drv STIM] addr=30  rd=1 rst=0
UVM_INFO /home/runner/rom_scoreboard.sv(108) @ 400: uvm_test_top.env_h.scoreboard_h [write_mon OUT ] addr=30  rd=1 rst=0  out=      6a 
UVM_INFO /home/runner/rom_scoreboard.sv(122) @ 400: uvm_test_top.env_h.scoreboard_h [PASS ] addr=30  rd=1 rst=0  out=      6a 
UVM_INFO /home/runner/rom_scoreboard.sv(78) @ 405: uvm_test_top.env_h.scoreboard_h [write_drv STIM] addr=12  rd=1 rst=0
UVM_INFO /home/runner/rom_scoreboard.sv(108) @ 410: uvm_test_top.env_h.scoreboard_h [write_mon OUT ] addr=12  rd=1 rst=0  out=      7c 
UVM_INFO /home/runner/rom_scoreboard.sv(122) @ 410: uvm_test_top.env_h.scoreboard_h [PASS ] addr=12  rd=1 rst=0  out=      7c 
UVM_INFO /home/runner/rom_scoreboard.sv(78) @ 415: uvm_test_top.env_h.scoreboard_h [write_drv STIM] addr= 7  rd=1 rst=0
UVM_INFO /home/runner/rom_scoreboard.sv(108) @ 420: uvm_test_top.env_h.scoreboard_h [write_mon OUT ] addr= 7  rd=1 rst=0  out=      34 
UVM_INFO /home/runner/rom_scoreboard.sv(122) @ 420: uvm_test_top.env_h.scoreboard_h [PASS ] addr= 7  rd=1 rst=0  out=      34 
UVM_INFO /home/runner/rom_scoreboard.sv(78) @ 425: uvm_test_top.env_h.scoreboard_h [write_drv STIM] addr= 0  rd=1 rst=0
UVM_INFO /home/runner/rom_scoreboard.sv(108) @ 430: uvm_test_top.env_h.scoreboard_h [write_mon OUT ] addr= 0  rd=1 rst=0  out=      9a 
UVM_INFO /home/runner/rom_scoreboard.sv(122) @ 430: uvm_test_top.env_h.scoreboard_h [PASS ] addr= 0  rd=1 rst=0  out=      9a 
UVM_INFO /home/runner/rom_scoreboard.sv(78) @ 435: uvm_test_top.env_h.scoreboard_h [write_drv STIM] addr= 1  rd=1 rst=0
UVM_INFO /home/runner/rom_scoreboard.sv(108) @ 440: uvm_test_top.env_h.scoreboard_h [write_mon OUT ] addr= 1  rd=1 rst=0  out=      45 
UVM_INFO /home/runner/rom_scoreboard.sv(122) @ 440: uvm_test_top.env_h.scoreboard_h [PASS ] addr= 1  rd=1 rst=0  out=      45 
UVM_INFO /home/runner/rom_scoreboard.sv(78) @ 445: uvm_test_top.env_h.scoreboard_h [write_drv STIM] addr= 2  rd=1 rst=0
UVM_INFO /home/runner/rom_scoreboard.sv(108) @ 450: uvm_test_top.env_h.scoreboard_h [write_mon OUT ] addr= 2  rd=1 rst=0  out=      60 
UVM_INFO /home/runner/rom_scoreboard.sv(122) @ 450: uvm_test_top.env_h.scoreboard_h [PASS ] addr= 2  rd=1 rst=0  out=      60 
UVM_INFO /home/runner/rom_scoreboard.sv(78) @ 455: uvm_test_top.env_h.scoreboard_h [write_drv STIM] addr= 3  rd=1 rst=0
UVM_INFO /home/runner/rom_scoreboard.sv(108) @ 460: uvm_test_top.env_h.scoreboard_h [write_mon OUT ] addr= 3  rd=1 rst=0  out=      23 
UVM_INFO /home/runner/rom_scoreboard.sv(122) @ 460: uvm_test_top.env_h.scoreboard_h [PASS ] addr= 3  rd=1 rst=0  out=      23 
UVM_INFO /home/runner/rom_scoreboard.sv(78) @ 465: uvm_test_top.env_h.scoreboard_h [write_drv STIM] addr= 4  rd=1 rst=0
UVM_INFO /home/runner/rom_scoreboard.sv(108) @ 470: uvm_test_top.env_h.scoreboard_h [write_mon OUT ] addr= 4  rd=1 rst=0  out=      79 
UVM_INFO /home/runner/rom_scoreboard.sv(122) @ 470: uvm_test_top.env_h.scoreboard_h [PASS ] addr= 4  rd=1 rst=0  out=      79 
UVM_INFO /home/runner/rom_scoreboard.sv(78) @ 475: uvm_test_top.env_h.scoreboard_h [write_drv STIM] addr= 5  rd=1 rst=0
UVM_INFO /home/runner/rom_scoreboard.sv(108) @ 480: uvm_test_top.env_h.scoreboard_h [write_mon OUT ] addr= 5  rd=1 rst=0  out=      12 
UVM_INFO /home/runner/rom_scoreboard.sv(122) @ 480: uvm_test_top.env_h.scoreboard_h [PASS ] addr= 5  rd=1 rst=0  out=      12 
UVM_INFO /home/runner/rom_scoreboard.sv(78) @ 485: uvm_test_top.env_h.scoreboard_h [write_drv STIM] addr= 6  rd=1 rst=0
UVM_INFO /home/runner/rom_scoreboard.sv(108) @ 490: uvm_test_top.env_h.scoreboard_h [write_mon OUT ] addr= 6  rd=1 rst=0  out=      ab 
UVM_INFO /home/runner/rom_scoreboard.sv(122) @ 490: uvm_test_top.env_h.scoreboard_h [PASS ] addr= 6  rd=1 rst=0  out=      ab 
UVM_INFO /home/runner/rom_scoreboard.sv(78) @ 495: uvm_test_top.env_h.scoreboard_h [write_drv STIM] addr= 7  rd=1 rst=0
UVM_INFO /home/runner/rom_scoreboard.sv(108) @ 500: uvm_test_top.env_h.scoreboard_h [write_mon OUT ] addr= 7  rd=1 rst=0  out=      cf 
UVM_INFO /home/runner/rom_scoreboard.sv(122) @ 500: uvm_test_top.env_h.scoreboard_h [PASS ] addr= 7  rd=1 rst=0  out=      cf 
UVM_INFO /home/runner/rom_scoreboard.sv(78) @ 505: uvm_test_top.env_h.scoreboard_h [write_drv STIM] addr= 8  rd=1 rst=0
UVM_INFO /home/runner/rom_scoreboard.sv(108) @ 510: uvm_test_top.env_h.scoreboard_h [write_mon OUT ] addr= 8  rd=1 rst=0  out=      9a 
UVM_INFO /home/runner/rom_scoreboard.sv(122) @ 510: uvm_test_top.env_h.scoreboard_h [PASS ] addr= 8  rd=1 rst=0  out=      9a 
UVM_INFO /home/runner/rom_scoreboard.sv(78) @ 515: uvm_test_top.env_h.scoreboard_h [write_drv STIM] addr= 9  rd=1 rst=0
UVM_INFO /home/runner/rom_scoreboard.sv(108) @ 520: uvm_test_top.env_h.scoreboard_h [write_mon OUT ] addr= 9  rd=1 rst=0  out=      b2 
UVM_INFO /home/runner/rom_scoreboard.sv(122) @ 520: uvm_test_top.env_h.scoreboard_h [PASS ] addr= 9  rd=1 rst=0  out=      b2 
UVM_INFO /home/runner/rom_scoreboard.sv(78) @ 525: uvm_test_top.env_h.scoreboard_h [write_drv STIM] addr=10  rd=1 rst=0
UVM_INFO /home/runner/rom_scoreboard.sv(108) @ 530: uvm_test_top.env_h.scoreboard_h [write_mon OUT ] addr=10  rd=1 rst=0  out=      c4 
UVM_INFO /home/runner/rom_scoreboard.sv(122) @ 530: uvm_test_top.env_h.scoreboard_h [PASS ] addr=10  rd=1 rst=0  out=      c4 
UVM_INFO /home/runner/rom_scoreboard.sv(78) @ 535: uvm_test_top.env_h.scoreboard_h [write_drv STIM] addr=11  rd=1 rst=0
UVM_INFO /home/runner/rom_scoreboard.sv(108) @ 540: uvm_test_top.env_h.scoreboard_h [write_mon OUT ] addr=11  rd=1 rst=0  out=      8d 
UVM_INFO /home/runner/rom_scoreboard.sv(122) @ 540: uvm_test_top.env_h.scoreboard_h [PASS ] addr=11  rd=1 rst=0  out=      8d 
UVM_INFO /home/runner/rom_scoreboard.sv(78) @ 545: uvm_test_top.env_h.scoreboard_h [write_drv STIM] addr=12  rd=1 rst=0
UVM_INFO /home/runner/rom_scoreboard.sv(108) @ 550: uvm_test_top.env_h.scoreboard_h [write_mon OUT ] addr=12  rd=1 rst=0  out=      1d 
UVM_INFO /home/runner/rom_scoreboard.sv(122) @ 550: uvm_test_top.env_h.scoreboard_h [PASS ] addr=12  rd=1 rst=0  out=      1d 
UVM_INFO /home/runner/rom_scoreboard.sv(78) @ 555: uvm_test_top.env_h.scoreboard_h [write_drv STIM] addr=13  rd=1 rst=0
UVM_INFO /home/runner/rom_scoreboard.sv(108) @ 560: uvm_test_top.env_h.scoreboard_h [write_mon OUT ] addr=13  rd=1 rst=0  out=      34 
UVM_INFO /home/runner/rom_scoreboard.sv(122) @ 560: uvm_test_top.env_h.scoreboard_h [PASS ] addr=13  rd=1 rst=0  out=      34 
UVM_INFO /home/runner/rom_scoreboard.sv(78) @ 565: uvm_test_top.env_h.scoreboard_h [write_drv STIM] addr=14  rd=1 rst=0
UVM_INFO /home/runner/rom_scoreboard.sv(108) @ 570: uvm_test_top.env_h.scoreboard_h [write_mon OUT ] addr=14  rd=1 rst=0  out=      e4 
UVM_INFO /home/runner/rom_scoreboard.sv(122) @ 570: uvm_test_top.env_h.scoreboard_h [PASS ] addr=14  rd=1 rst=0  out=      e4 
UVM_INFO /home/runner/rom_scoreboard.sv(78) @ 575: uvm_test_top.env_h.scoreboard_h [write_drv STIM] addr=15  rd=1 rst=0
UVM_INFO /home/runner/rom_scoreboard.sv(108) @ 580: uvm_test_top.env_h.scoreboard_h [write_mon OUT ] addr=15  rd=1 rst=0  out=      a6 
UVM_INFO /home/runner/rom_scoreboard.sv(122) @ 580: uvm_test_top.env_h.scoreboard_h [PASS ] addr=15  rd=1 rst=0  out=      a6 
UVM_INFO /home/runner/rom_scoreboard.sv(78) @ 585: uvm_test_top.env_h.scoreboard_h [write_drv STIM] addr=16  rd=1 rst=0
UVM_INFO /home/runner/rom_scoreboard.sv(108) @ 590: uvm_test_top.env_h.scoreboard_h [write_mon OUT ] addr=16  rd=1 rst=0  out=      9d 
UVM_INFO /home/runner/rom_scoreboard.sv(122) @ 590: uvm_test_top.env_h.scoreboard_h [PASS ] addr=16  rd=1 rst=0  out=      9d 
UVM_INFO /home/runner/rom_scoreboard.sv(78) @ 595: uvm_test_top.env_h.scoreboard_h [write_drv STIM] addr=17  rd=1 rst=0
UVM_INFO /home/runner/rom_scoreboard.sv(108) @ 600: uvm_test_top.env_h.scoreboard_h [write_mon OUT ] addr=17  rd=1 rst=0  out=      87 
UVM_INFO /home/runner/rom_scoreboard.sv(122) @ 600: uvm_test_top.env_h.scoreboard_h [PASS ] addr=17  rd=1 rst=0  out=      87 
UVM_INFO /home/runner/rom_scoreboard.sv(78) @ 605: uvm_test_top.env_h.scoreboard_h [write_drv STIM] addr=18  rd=1 rst=0
UVM_INFO /home/runner/rom_scoreboard.sv(108) @ 610: uvm_test_top.env_h.scoreboard_h [write_mon OUT ] addr=18  rd=1 rst=0  out=      21 
UVM_INFO /home/runner/rom_scoreboard.sv(122) @ 610: uvm_test_top.env_h.scoreboard_h [PASS ] addr=18  rd=1 rst=0  out=      21 
UVM_INFO /home/runner/rom_scoreboard.sv(78) @ 615: uvm_test_top.env_h.scoreboard_h [write_drv STIM] addr=19  rd=1 rst=0
UVM_INFO /home/runner/rom_scoreboard.sv(108) @ 620: uvm_test_top.env_h.scoreboard_h [write_mon OUT ] addr=19  rd=1 rst=0  out=      3a 
UVM_INFO /home/runner/rom_scoreboard.sv(122) @ 620: uvm_test_top.env_h.scoreboard_h [PASS ] addr=19  rd=1 rst=0  out=      3a 
UVM_INFO /home/runner/rom_scoreboard.sv(78) @ 625: uvm_test_top.env_h.scoreboard_h [write_drv STIM] addr=20  rd=1 rst=0
UVM_INFO /home/runner/rom_scoreboard.sv(108) @ 630: uvm_test_top.env_h.scoreboard_h [write_mon OUT ] addr=20  rd=1 rst=0  out=      0a 
UVM_INFO /home/runner/rom_scoreboard.sv(122) @ 630: uvm_test_top.env_h.scoreboard_h [PASS ] addr=20  rd=1 rst=0  out=      0a 
